[
    {
        "id":1,
        "name":"Pertanyaan 1",
        "type":"select",
        "questions":["Q1","Q2","Q3"]
    },
    {
        "id":2,
        "name":"Pertanyaan 2",
        "type":"select",
        "questions":["Q1","Q2","Q3"]
    },
    {
        "id":3,
        "name":"Pertanyaan 3",
        "type":"select",
        "questions":["3Q1","3Q2","3Q3"]
    },
    {
        "id":4,
        "name":"Pertanyaan 4",
        "type":"radio",
        "questions":["4Q1","4Q2","4Q3"]
    }
    ,
    {
        "id":5,
        "name":"Pertanyaan 5",
        "type":"radio",
        "questions":["5Q1","5Q2","5Q3"]
    }
]